{
  "project_info": {
    "project_number": "968195376096",
    "firebase_url": "https://chef-68b62.firebaseio.com",
    "project_id": "chef-68b62",
    "storage_bucket": "chef-68b62.appspot.com"
  },
  "client": [
    {
      "client_info": {
        "mobilesdk_app_id": "1:968195376096:android:b244f3043a626113",
        "android_client_info": {
          "package_name": "com.vervelogic.chefdiner"
        }
      },
      "oauth_client": [
        {
          "client_id": "968195376096-2uc2ht36fkerh5ofi97n26e4g1jgu86a.apps.googleusercontent.com",
          "client_type": 3
        }
      ],
      "api_key": [
        {
          "current_key": "AIzaSyB4KSCjpkjqUsK9mkzdpVBq1hPQODHY0XA"
        }
      ],
      "services": {
        "analytics_service": {
          "status": 1
        },
        "appinvite_service": {
          "status": 1,
          "other_platform_oauth_client": []
        },
        "ads_service": {
          "status": 2
        }
      }
    }
  ],
  "configuration_version": "1"
}